{
  "links": [
    {
      "created_at": "2021-09-20T01:19:44+0000",
      "id": "bit.ly/2XxugJT",
      "link": "https://bit.ly/2XxugJT",
      "custom_bitlinks": [],
      "long_url": "https://www.nomadproject.io/",
      "title": "Nomad by HashiCorp",
      "archived": false,
      "created_by": "jrxfive",
      "client_id": "ece654beaf35f9c29f610ffd4fb128702b4bad15",
      "tags": [],
      "deeplinks": [],
      "references": {
        "group": "https://api-ssl.bitly.com/v4/groups/Bl9iekhPWD3"
      }
    }
  ],
  "pagination": {
    "prev": "https://api-ssl.bitly.com/v4/groups/Bl9iekhPWD3/bitlinks?page=1&size=1",
    "next": "https://api-ssl.bitly.com/v4/groups/Bl9iekhPWD3/bitlinks?page=3&size=1",
    "size": 1,
    "page": 2,
    "total": 3
  }
}